{
    "version": 3,
    "cmakeMinimumRequired": {
        "major": 3,
        "minor": 22,
        "patch": 0
    },
    "configurePresets": [
        {
            "name": "default",
            "hidden": true,
            "generator": "Ninja",
            "binaryDir": "${sourceDir}/cmake/${presetName}",
            "cacheVariables": {
                "CMAKE_EXPORT_COMPILE_COMMANDS": "ON"
            }
        },
        {
            "name": "multi",
            "hidden": true,
            "generator": "Ninja Multi-Config",
            "binaryDir": "${sourceDir}/cmake/${presetName}",
            "cacheVariables": {
                "CMAKE_EXPORT_COMPILE_COMMANDS": "ON"
            }
        },
        {
            "name": "x64",
            "inherits": "default",
            "toolchainFile": "${sourceDir}/cmake/toolchains/gcc-x64.cmake"
        },
        {
            "name": "multi-x64",
            "inherits": [
                "multi",
                "x64"
            ]
        },
        {
            "name": "Debug",
            "cacheVariables": {
                "CMAKE_BUILD_TYPE": "Debug"
            }
        },
        {
            "name": "RelWithDebInfo",
            "cacheVariables": {
                "CMAKE_BUILD_TYPE": "RelWithDebInfo"
            }
        },
        {
            "name": "Release",
            "cacheVariables": {
                "CMAKE_BUILD_TYPE": "Release"
            }
        },
        {
            "name": "MinSizeRel",
            "cacheVariables": {
                "CMAKE_BUILD_TYPE": "MinSizeRel"
            }
        },
        {
            "name": "Debug-x64",
            "inherits": [
                "Debug",
                "x64"
            ]
        },
        {
            "name": "RelWithDebInfo-x64",
            "inherits": [
                "RelWithDebInfo",
                "x64"
            ]
        },
        {
            "name": "Release-x64",
            "inherits": [
                "Release",
                "x64"
            ]
        },
        {
            "name": "MinSizeRel-x64",
            "inherits": [
                "MinSizeRel",
                "x64"
            ]
        },

        {
            "name": "arm-eabi",
            "inherits": "default",
            "toolchainFile": "${sourceDir}/cmake/toolchains/gcc-arm-none-eabi.cmake"
        },
        {
            "name": "multi-arm-eabi",
            "inherits": [
                "multi",
                "arm-eabi"
            ]
        },
        {
            "name": "Debug-arm-eabi",
            "inherits": [
                "Debug",
                "arm-eabi"
            ]
        },
        {
            "name": "RelWithDebInfo-arm-eabi",
            "inherits": [
                "RelWithDebInfo",
                "arm-eabi"
            ]
        },
        {
            "name": "Release-arm-eabi",
            "inherits": [
                "Release",
                "arm-eabi"
            ]
        },
        {
            "name": "MinSizeRel-arm-eabi",
            "inherits": [
                "MinSizeRel",
                "arm-eabi"
            ]
        }
    ],
    "buildPresets": [
        {
            "name": "multi-x64",
            "hidden": true,
            "jobs": 4,
            "configurePreset": "multi-x64"
        },
        {
            "name": "Debug-x64",
            "inherits": "multi-x64",
            "configuration": "Debug"
        },
        {
            "name": "RelWithDebInfo-x64",
            "inherits": "multi-x64",
            "configuration": "RelWithDebInfo"
        },
        {
            "name": "Release-x64",
            "inherits": "multi-x64",
            "configuration": "Release"
        },
        {
            "name": "MinSizeRel-x64",
            "inherits": "multi-x64",
            "configuration": "MinSizeRel"
        },
        {
            "name": "multi-arm-eabi",
            "hidden": true,
            "configurePreset": "multi-x64"
        },
        {
            "name": "Debug-arm-eabi",
            "inherits": "multi-arm-eabi",
            "configuration": "Debug"
        },
        {
            "name": "RelWithDebInfo-arm-eabi",
            "inherits": "multi-arm-eabi",
            "configuration": "RelWithDebInfo"
        },
        {
            "name": "Release-arm-eabi",
            "inherits": "multi-arm-eabi",
            "configuration": "Release"
        },
        {
            "name": "MinSizeRel-arm-eabi",
            "inherits": "multi-arm-eabi",
            "configuration": "MinSizeRel"
        }
    ],
    "testPresets": [
        {
            "name": "multi-x64",
            "hidden": true,
            "configurePreset": "multi-x64"
        },
        {
            "name": "Debug-x64",
            "inherits": "multi-x64",
            "configuration": "Debug"
        }
        //,
        //{
        //    "name": "RelWithDebInfo-x64",
        //    "inherits": "multi-x64",
        //    "configuration": "RelWithDebInfo"
        //},
        //{
        //    "name": "Release-x64",
        //    "inherits": "multi-x64",
        //    "configuration": "Release"
        //},
        //{
        //    "name": "MinSizeRel-x64",
        //    "inherits": "multi-x64",
        //    "configuration": "MinSizeRel"
        //},
        //{
        //    "name": "multi-arm-eabi",
        //    "hidden": true,
        //    "configurePreset": "multi-x64"
        //},
        //{
        //    "name": "Debug-arm-eabi",
        //    "inherits": "multi-arm-eabi",
        //    "configuration": "Debug"
        //},
        //{
        //    "name": "RelWithDebInfo-arm-eabi",
        //    "inherits": "multi-arm-eabi",
        //    "configuration": "RelWithDebInfo"
        //},
        //{
        //    "name": "Release-arm-eabi",
        //    "inherits": "multi-arm-eabi",
        //    "configuration": "Release"
        //},
        //{
        //    "name": "MinSizeRel-arm-eabi",
        //    "inherits": "multi-arm-eabi",
        //    "configuration": "MinSizeRel"
        //}
    ]
}